Processor/simulation/qsim/Processor.msim.vcd
$comment
	File created using the following command:
		vcd file Processor.msim.vcd -direction
$end
$date
	Tue Apr 02 21:53:42 2019
$end
$version
	ModelSim Version 10.5b
$end
$timescale
	1ps
$end

$scope module Memory_vlg_vec_tst $end
$var reg 10 ! address [9:0] $end
$var reg 1 " clk $end
$var reg 32 # in [31:0] $end
$var reg 1 $ sign $end
$var reg 2 % width [1:0] $end
$var reg 1 & wren $end
$var wire 1 ' out [31] $end
$var wire 1 ( out [30] $end
$var wire 1 ) out [29] $end
$var wire 1 * out [28] $end
$var wire 1 + out [27] $end
$var wire 1 , out [26] $end
$var wire 1 - out [25] $end
$var wire 1 . out [24] $end
$var wire 1 / out [23] $end
$var wire 1 0 out [22] $end
$var wire 1 1 out [21] $end
$var wire 1 2 out [20] $end
$var wire 1 3 out [19] $end
$var wire 1 4 out [18] $end
$var wire 1 5 out [17] $end
$var wire 1 6 out [16] $end
$var wire 1 7 out [15] $end
$var wire 1 8 out [14] $end
$var wire 1 9 out [13] $end
$var wire 1 : out [12] $end
$var wire 1 ; out [11] $end
$var wire 1 < out [10] $end
$var wire 1 = out [9] $end
$var wire 1 > out [8] $end
$var wire 1 ? out [7] $end
$var wire 1 @ out [6] $end
$var wire 1 A out [5] $end
$var wire 1 B out [4] $end
$var wire 1 C out [3] $end
$var wire 1 D out [2] $end
$var wire 1 E out [1] $end
$var wire 1 F out [0] $end

$scope module i1 $end
$var wire 1 G gnd $end
$var wire 1 H vcc $end
$var wire 1 I unknown $end
$var tri1 1 J devclrn $end
$var tri1 1 K devpor $end
$var tri1 1 L devoe $end
$var wire 1 M address[8]~input_o $end
$var wire 1 N address[9]~input_o $end
$var wire 1 O out[0]~output_o $end
$var wire 1 P out[1]~output_o $end
$var wire 1 Q out[2]~output_o $end
$var wire 1 R out[3]~output_o $end
$var wire 1 S out[4]~output_o $end
$var wire 1 T out[5]~output_o $end
$var wire 1 U out[6]~output_o $end
$var wire 1 V out[7]~output_o $end
$var wire 1 W out[8]~output_o $end
$var wire 1 X out[9]~output_o $end
$var wire 1 Y out[10]~output_o $end
$var wire 1 Z out[11]~output_o $end
$var wire 1 [ out[12]~output_o $end
$var wire 1 \ out[13]~output_o $end
$var wire 1 ] out[14]~output_o $end
$var wire 1 ^ out[15]~output_o $end
$var wire 1 _ out[16]~output_o $end
$var wire 1 ` out[17]~output_o $end
$var wire 1 a out[18]~output_o $end
$var wire 1 b out[19]~output_o $end
$var wire 1 c out[20]~output_o $end
$var wire 1 d out[21]~output_o $end
$var wire 1 e out[22]~output_o $end
$var wire 1 f out[23]~output_o $end
$var wire 1 g out[24]~output_o $end
$var wire 1 h out[25]~output_o $end
$var wire 1 i out[26]~output_o $end
$var wire 1 j out[27]~output_o $end
$var wire 1 k out[28]~output_o $end
$var wire 1 l out[29]~output_o $end
$var wire 1 m out[30]~output_o $end
$var wire 1 n out[31]~output_o $end
$var wire 1 o address[0]~input_o $end
$var wire 1 p width[0]~input_o $end
$var wire 1 q out~105_combout $end
$var wire 1 r wren~input_o $end
$var wire 1 s width[1]~input_o $end
$var wire 1 t address[1]~input_o $end
$var wire 1 u mem3wren~0_combout $end
$var wire 1 v clk~input_o $end
$var wire 1 w clk~inputclkctrl_outclk $end
$var wire 1 x in[0]~input_o $end
$var wire 1 y Add5~8_combout $end
$var wire 1 z address[2]~input_o $end
$var wire 1 { Add22~0_combout $end
$var wire 1 | Add5~0_combout $end
$var wire 1 } Add5~2_cout $end
$var wire 1 ~ Add5~4_cout $end
$var wire 1 !! Add5~5_combout $end
$var wire 1 "! Add5~7_combout $end
$var wire 1 #! Add5~9_combout $end
$var wire 1 $! address[3]~input_o $end
$var wire 1 %! Add5~6 $end
$var wire 1 &! Add5~10_combout $end
$var wire 1 '! Add5~12_combout $end
$var wire 1 (! address[4]~input_o $end
$var wire 1 )! Add5~11 $end
$var wire 1 *! Add5~13_combout $end
$var wire 1 +! Add5~15_combout $end
$var wire 1 ,! address[5]~input_o $end
$var wire 1 -! Add5~14 $end
$var wire 1 .! Add5~16_combout $end
$var wire 1 /! Add5~18_combout $end
$var wire 1 0! address[6]~input_o $end
$var wire 1 1! Add5~17 $end
$var wire 1 2! Add5~19_combout $end
$var wire 1 3! Add5~21_combout $end
$var wire 1 4! address[7]~input_o $end
$var wire 1 5! Add5~20 $end
$var wire 1 6! Add5~22_combout $end
$var wire 1 7! Add5~24_combout $end
$var wire 1 8! in[1]~input_o $end
$var wire 1 9! in[2]~input_o $end
$var wire 1 :! in[3]~input_o $end
$var wire 1 ;! in[4]~input_o $end
$var wire 1 <! in[5]~input_o $end
$var wire 1 =! in[6]~input_o $end
$var wire 1 >! in[7]~input_o $end
$var wire 1 ?! mem0wren~0_combout $end
$var wire 1 @! mem0wren~1_combout $end
$var wire 1 A! in[24]~input_o $end
$var wire 1 B! Add6~1_cout $end
$var wire 1 C! Add6~3_cout $end
$var wire 1 D! Add6~4_combout $end
$var wire 1 E! Add6~6_combout $end
$var wire 1 F! address0[4]~0_combout $end
$var wire 1 G! Add0~33_combout $end
$var wire 1 H! Add22~1 $end
$var wire 1 I! Add22~2_combout $end
$var wire 1 J! Add13~1_cout $end
$var wire 1 K! Add13~2_combout $end
$var wire 1 L! Add0~0_combout $end
$var wire 1 M! address0[0]~1_combout $end
$var wire 1 N! Add22~3 $end
$var wire 1 O! Add22~4_combout $end
$var wire 1 P! Add13~3 $end
$var wire 1 Q! Add13~4_combout $end
$var wire 1 R! Add0~7_combout $end
$var wire 1 S! Add6~5 $end
$var wire 1 T! Add6~7_combout $end
$var wire 1 U! Add6~9_combout $end
$var wire 1 V! Add7~0_combout $end
$var wire 1 W! out~52_combout $end
$var wire 1 X! address0[1]~2_combout $end
$var wire 1 Y! Add6~8 $end
$var wire 1 Z! Add6~10_combout $end
$var wire 1 [! Add22~5 $end
$var wire 1 \! Add22~6_combout $end
$var wire 1 ]! Add13~5 $end
$var wire 1 ^! Add13~6_combout $end
$var wire 1 _! Add0~12_combout $end
$var wire 1 `! Add6~12_combout $end
$var wire 1 a! Add7~1_combout $end
$var wire 1 b! Add0~34_combout $end
$var wire 1 c! address0[2]~3_combout $end
$var wire 1 d! Add22~7 $end
$var wire 1 e! Add22~8_combout $end
$var wire 1 f! Add13~7 $end
$var wire 1 g! Add13~8_combout $end
$var wire 1 h! Add0~17_combout $end
$var wire 1 i! Add6~11 $end
$var wire 1 j! Add6~13_combout $end
$var wire 1 k! Add6~15_combout $end
$var wire 1 l! Add7~2_combout $end
$var wire 1 m! address0[3]~4_combout $end
$var wire 1 n! Equal0~0_combout $end
$var wire 1 o! Add6~14 $end
$var wire 1 p! Add6~16_combout $end
$var wire 1 q! Add7~3_combout $end
$var wire 1 r! Add22~9 $end
$var wire 1 s! Add22~10_combout $end
$var wire 1 t! Add13~9 $end
$var wire 1 u! Add13~10_combout $end
$var wire 1 v! Add0~22_combout $end
$var wire 1 w! Add7~4_combout $end
$var wire 1 x! address0[4]~5_combout $end
$var wire 1 y! Add6~17 $end
$var wire 1 z! Add6~18_combout $end
$var wire 1 {! Add22~11 $end
$var wire 1 |! Add22~12_combout $end
$var wire 1 }! Add13~11 $end
$var wire 1 ~! Add13~12_combout $end
$var wire 1 !" address0[5]~8_combout $end
$var wire 1 "" address0[5]~9_combout $end
$var wire 1 #" address0[5]~6_combout $end
$var wire 1 $" address0[5]~7_combout $end
$var wire 1 %" address0[5]~10_combout $end
$var wire 1 &" Add0~27_combout $end
$var wire 1 '" address0[5]~11_combout $end
$var wire 1 (" in[25]~input_o $end
$var wire 1 )" in[26]~input_o $end
$var wire 1 *" in[27]~input_o $end
$var wire 1 +" in[28]~input_o $end
$var wire 1 ," in[29]~input_o $end
$var wire 1 -" in[30]~input_o $end
$var wire 1 ." in[31]~input_o $end
$var wire 1 /" out~0_combout $end
$var wire 1 0" out~1_combout $end
$var wire 1 1" mem1wren~0_combout $end
$var wire 1 2" in[16]~input_o $end
$var wire 1 3" address1[0]~0_combout $end
$var wire 1 4" Add0~1_combout $end
$var wire 1 5" Add0~3_cout $end
$var wire 1 6" Add0~4_combout $end
$var wire 1 7" Add0~6_combout $end
$var wire 1 8" Add0~8_combout $end
$var wire 1 9" Add0~5 $end
$var wire 1 :" Add0~9_combout $end
$var wire 1 ;" Add0~11_combout $end
$var wire 1 <" Add0~13_combout $end
$var wire 1 =" Add0~10 $end
$var wire 1 >" Add0~14_combout $end
$var wire 1 ?" Add0~16_combout $end
$var wire 1 @" Add0~18_combout $end
$var wire 1 A" Add0~15 $end
$var wire 1 B" Add0~19_combout $end
$var wire 1 C" Add0~21_combout $end
$var wire 1 D" Add0~23_combout $end
$var wire 1 E" Add0~20 $end
$var wire 1 F" Add0~24_combout $end
$var wire 1 G" Add0~26_combout $end
$var wire 1 H" Add0~28_combout $end
$var wire 1 I" Add0~29_combout $end
$var wire 1 J" Add0~25 $end
$var wire 1 K" Add0~30_combout $end
$var wire 1 L" Add0~32_combout $end
$var wire 1 M" in[17]~input_o $end
$var wire 1 N" in[18]~input_o $end
$var wire 1 O" in[19]~input_o $end
$var wire 1 P" in[20]~input_o $end
$var wire 1 Q" in[21]~input_o $end
$var wire 1 R" in[22]~input_o $end
$var wire 1 S" in[23]~input_o $end
$var wire 1 T" mem2wren~0_combout $end
$var wire 1 U" mem2wren~1_combout $end
$var wire 1 V" in[8]~input_o $end
$var wire 1 W" address2[1]~0_combout $end
$var wire 1 X" Add2~0_combout $end
$var wire 1 Y" Add2~1_combout $end
$var wire 1 Z" Add2~3_cout $end
$var wire 1 [" Add2~5_cout $end
$var wire 1 \" Add2~6_combout $end
$var wire 1 ]" address2[0]~1_combout $end
$var wire 1 ^" Add2~8_combout $end
$var wire 1 _" Add2~7 $end
$var wire 1 `" Add2~9_combout $end
$var wire 1 a" address2[1]~2_combout $end
$var wire 1 b" Add2~11_combout $end
$var wire 1 c" Add2~10 $end
$var wire 1 d" Add2~12_combout $end
$var wire 1 e" address2[2]~3_combout $end
$var wire 1 f" Add2~14_combout $end
$var wire 1 g" Add2~13 $end
$var wire 1 h" Add2~15_combout $end
$var wire 1 i" address2[3]~4_combout $end
$var wire 1 j" Add2~17_combout $end
$var wire 1 k" Add2~16 $end
$var wire 1 l" Add2~18_combout $end
$var wire 1 m" address2[4]~5_combout $end
$var wire 1 n" Add2~20_combout $end
$var wire 1 o" Add2~19 $end
$var wire 1 p" Add2~21_combout $end
$var wire 1 q" address2[5]~6_combout $end
$var wire 1 r" in[9]~input_o $end
$var wire 1 s" in[10]~input_o $end
$var wire 1 t" in[11]~input_o $end
$var wire 1 u" in[12]~input_o $end
$var wire 1 v" in[13]~input_o $end
$var wire 1 w" in[14]~input_o $end
$var wire 1 x" in[15]~input_o $end
$var wire 1 y" out~2_combout $end
$var wire 1 z" out~3_combout $end
$var wire 1 {" out~4_combout $end
$var wire 1 |" out~5_combout $end
$var wire 1 }" out~6_combout $end
$var wire 1 ~" out~7_combout $end
$var wire 1 !# out~8_combout $end
$var wire 1 "# out~9_combout $end
$var wire 1 ## out~10_combout $end
$var wire 1 $# out~11_combout $end
$var wire 1 %# out~12_combout $end
$var wire 1 &# out~13_combout $end
$var wire 1 '# out~14_combout $end
$var wire 1 (# out~15_combout $end
$var wire 1 )# out~16_combout $end
$var wire 1 *# out~17_combout $end
$var wire 1 +# out~28_combout $end
$var wire 1 ,# out~18_combout $end
$var wire 1 -# out~19_combout $end
$var wire 1 .# sign~input_o $end
$var wire 1 /# out~22_combout $end
$var wire 1 0# out~21_combout $end
$var wire 1 1# out~23_combout $end
$var wire 1 2# out~24_combout $end
$var wire 1 3# out~20_combout $end
$var wire 1 4# out~25_combout $end
$var wire 1 5# out~26_combout $end
$var wire 1 6# out~27_combout $end
$var wire 1 7# out~29_combout $end
$var wire 1 8# out~30_combout $end
$var wire 1 9# out~31_combout $end
$var wire 1 :# out~32_combout $end
$var wire 1 ;# out~33_combout $end
$var wire 1 <# out~34_combout $end
$var wire 1 =# out~35_combout $end
$var wire 1 ># out~36_combout $end
$var wire 1 ?# out~37_combout $end
$var wire 1 @# out~38_combout $end
$var wire 1 A# out~39_combout $end
$var wire 1 B# out~40_combout $end
$var wire 1 C# out~41_combout $end
$var wire 1 D# out~42_combout $end
$var wire 1 E# out~43_combout $end
$var wire 1 F# out~44_combout $end
$var wire 1 G# out~45_combout $end
$var wire 1 H# out~46_combout $end
$var wire 1 I# out~47_combout $end
$var wire 1 J# out~48_combout $end
$var wire 1 K# out~49_combout $end
$var wire 1 L# out~50_combout $end
$var wire 1 M# out~54_combout $end
$var wire 1 N# out~55_combout $end
$var wire 1 O# out~56_combout $end
$var wire 1 P# out~57_combout $end
$var wire 1 Q# out~58_combout $end
$var wire 1 R# out~51_combout $end
$var wire 1 S# out~53_combout $end
$var wire 1 T# out~59_combout $end
$var wire 1 U# out~60_combout $end
$var wire 1 V# out~61_combout $end
$var wire 1 W# out~62_combout $end
$var wire 1 X# out~63_combout $end
$var wire 1 Y# out~64_combout $end
$var wire 1 Z# out~65_combout $end
$var wire 1 [# out~66_combout $end
$var wire 1 \# out~67_combout $end
$var wire 1 ]# out~68_combout $end
$var wire 1 ^# out~69_combout $end
$var wire 1 _# out~70_combout $end
$var wire 1 `# out~71_combout $end
$var wire 1 a# out~72_combout $end
$var wire 1 b# out~73_combout $end
$var wire 1 c# out~74_combout $end
$var wire 1 d# out~75_combout $end
$var wire 1 e# out~76_combout $end
$var wire 1 f# out~77_combout $end
$var wire 1 g# out~78_combout $end
$var wire 1 h# out~79_combout $end
$var wire 1 i# out~80_combout $end
$var wire 1 j# out~81_combout $end
$var wire 1 k# out~82_combout $end
$var wire 1 l# out~83_combout $end
$var wire 1 m# out~84_combout $end
$var wire 1 n# out~85_combout $end
$var wire 1 o# out~86_combout $end
$var wire 1 p# out~87_combout $end
$var wire 1 q# out~88_combout $end
$var wire 1 r# out~89_combout $end
$var wire 1 s# out~90_combout $end
$var wire 1 t# out~91_combout $end
$var wire 1 u# out~92_combout $end
$var wire 1 v# out~93_combout $end
$var wire 1 w# out~94_combout $end
$var wire 1 x# out~95_combout $end
$var wire 1 y# out~96_combout $end
$var wire 1 z# out~97_combout $end
$var wire 1 {# out~98_combout $end
$var wire 1 |# out~99_combout $end
$var wire 1 }# out~100_combout $end
$var wire 1 ~# out~101_combout $end
$var wire 1 !$ out~102_combout $end
$var wire 1 "$ out~103_combout $end
$var wire 1 #$ out~104_combout $end
$var wire 1 $$ mem3|altsyncram_component|auto_generated|q_a [7] $end
$var wire 1 %$ mem3|altsyncram_component|auto_generated|q_a [6] $end
$var wire 1 &$ mem3|altsyncram_component|auto_generated|q_a [5] $end
$var wire 1 '$ mem3|altsyncram_component|auto_generated|q_a [4] $end
$var wire 1 ($ mem3|altsyncram_component|auto_generated|q_a [3] $end
$var wire 1 )$ mem3|altsyncram_component|auto_generated|q_a [2] $end
$var wire 1 *$ mem3|altsyncram_component|auto_generated|q_a [1] $end
$var wire 1 +$ mem3|altsyncram_component|auto_generated|q_a [0] $end
$var wire 1 ,$ mem2|altsyncram_component|auto_generated|q_a [7] $end
$var wire 1 -$ mem2|altsyncram_component|auto_generated|q_a [6] $end
$var wire 1 .$ mem2|altsyncram_component|auto_generated|q_a [5] $end
$var wire 1 /$ mem2|altsyncram_component|auto_generated|q_a [4] $end
$var wire 1 0$ mem2|altsyncram_component|auto_generated|q_a [3] $end
$var wire 1 1$ mem2|altsyncram_component|auto_generated|q_a [2] $end
$var wire 1 2$ mem2|altsyncram_component|auto_generated|q_a [1] $end
$var wire 1 3$ mem2|altsyncram_component|auto_generated|q_a [0] $end
$var wire 1 4$ mem1|altsyncram_component|auto_generated|q_a [7] $end
$var wire 1 5$ mem1|altsyncram_component|auto_generated|q_a [6] $end
$var wire 1 6$ mem1|altsyncram_component|auto_generated|q_a [5] $end
$var wire 1 7$ mem1|altsyncram_component|auto_generated|q_a [4] $end
$var wire 1 8$ mem1|altsyncram_component|auto_generated|q_a [3] $end
$var wire 1 9$ mem1|altsyncram_component|auto_generated|q_a [2] $end
$var wire 1 :$ mem1|altsyncram_component|auto_generated|q_a [1] $end
$var wire 1 ;$ mem1|altsyncram_component|auto_generated|q_a [0] $end
$var wire 1 <$ mem0|altsyncram_component|auto_generated|q_a [7] $end
$var wire 1 =$ mem0|altsyncram_component|auto_generated|q_a [6] $end
$var wire 1 >$ mem0|altsyncram_component|auto_generated|q_a [5] $end
$var wire 1 ?$ mem0|altsyncram_component|auto_generated|q_a [4] $end
$var wire 1 @$ mem0|altsyncram_component|auto_generated|q_a [3] $end
$var wire 1 A$ mem0|altsyncram_component|auto_generated|q_a [2] $end
$var wire 1 B$ mem0|altsyncram_component|auto_generated|q_a [1] $end
$var wire 1 C$ mem0|altsyncram_component|auto_generated|q_a [0] $end
$var wire 1 D$ mem3|altsyncram_component|auto_generated|ram_block1a0_PORTADATAOUT_bus [17] $end
$var wire 1 E$ mem3|altsyncram_component|auto_generated|ram_block1a0_PORTADATAOUT_bus [16] $end
$var wire 1 F$ mem3|altsyncram_component|auto_generated|ram_block1a0_PORTADATAOUT_bus [15] $end
$var wire 1 G$ mem3|altsyncram_component|auto_generated|ram_block1a0_PORTADATAOUT_bus [14] $end
$var wire 1 H$ mem3|altsyncram_component|auto_generated|ram_block1a0_PORTADATAOUT_bus [13] $end
$var wire 1 I$ mem3|altsyncram_component|auto_generated|ram_block1a0_PORTADATAOUT_bus [12] $end
$var wire 1 J$ mem3|altsyncram_component|auto_generated|ram_block1a0_PORTADATAOUT_bus [11] $end
$var wire 1 K$ mem3|altsyncram_component|auto_generated|ram_block1a0_PORTADATAOUT_bus [10] $end
$var wire 1 L$ mem3|altsyncram_component|auto_generated|ram_block1a0_PORTADATAOUT_bus [9] $end
$var wire 1 M$ mem3|altsyncram_component|auto_generated|ram_block1a0_PORTADATAOUT_bus [8] $end
$var wire 1 N$ mem3|altsyncram_component|auto_generated|ram_block1a0_PORTADATAOUT_bus [7] $end
$var wire 1 O$ mem3|altsyncram_component|auto_generated|ram_block1a0_PORTADATAOUT_bus [6] $end
$var wire 1 P$ mem3|altsyncram_component|auto_generated|ram_block1a0_PORTADATAOUT_bus [5] $end
$var wire 1 Q$ mem3|altsyncram_component|auto_generated|ram_block1a0_PORTADATAOUT_bus [4] $end
$var wire 1 R$ mem3|altsyncram_component|auto_generated|ram_block1a0_PORTADATAOUT_bus [3] $end
$var wire 1 S$ mem3|altsyncram_component|auto_generated|ram_block1a0_PORTADATAOUT_bus [2] $end
$var wire 1 T$ mem3|altsyncram_component|auto_generated|ram_block1a0_PORTADATAOUT_bus [1] $end
$var wire 1 U$ mem3|altsyncram_component|auto_generated|ram_block1a0_PORTADATAOUT_bus [0] $end
$var wire 1 V$ mem2|altsyncram_component|auto_generated|ram_block1a0_PORTADATAOUT_bus [17] $end
$var wire 1 W$ mem2|altsyncram_component|auto_generated|ram_block1a0_PORTADATAOUT_bus [16] $end
$var wire 1 X$ mem2|altsyncram_component|auto_generated|ram_block1a0_PORTADATAOUT_bus [15] $end
$var wire 1 Y$ mem2|altsyncram_component|auto_generated|ram_block1a0_PORTADATAOUT_bus [14] $end
$var wire 1 Z$ mem2|altsyncram_component|auto_generated|ram_block1a0_PORTADATAOUT_bus [13] $end
$var wire 1 [$ mem2|altsyncram_component|auto_generated|ram_block1a0_PORTADATAOUT_bus [12] $end
$var wire 1 \$ mem2|altsyncram_component|auto_generated|ram_block1a0_PORTADATAOUT_bus [11] $end
$var wire 1 ]$ mem2|altsyncram_component|auto_generated|ram_block1a0_PORTADATAOUT_bus [10] $end
$var wire 1 ^$ mem2|altsyncram_component|auto_generated|ram_block1a0_PORTADATAOUT_bus [9] $end
$var wire 1 _$ mem2|altsyncram_component|auto_generated|ram_block1a0_PORTADATAOUT_bus [8] $end
$var wire 1 `$ mem2|altsyncram_component|auto_generated|ram_block1a0_PORTADATAOUT_bus [7] $end
$var wire 1 a$ mem2|altsyncram_component|auto_generated|ram_block1a0_PORTADATAOUT_bus [6] $end
$var wire 1 b$ mem2|altsyncram_component|auto_generated|ram_block1a0_PORTADATAOUT_bus [5] $end
$var wire 1 c$ mem2|altsyncram_component|auto_generated|ram_block1a0_PORTADATAOUT_bus [4] $end
$var wire 1 d$ mem2|altsyncram_component|auto_generated|ram_block1a0_PORTADATAOUT_bus [3] $end
$var wire 1 e$ mem2|altsyncram_component|auto_generated|ram_block1a0_PORTADATAOUT_bus [2] $end
$var wire 1 f$ mem2|altsyncram_component|auto_generated|ram_block1a0_PORTADATAOUT_bus [1] $end
$var wire 1 g$ mem2|altsyncram_component|auto_generated|ram_block1a0_PORTADATAOUT_bus [0] $end
$var wire 1 h$ mem1|altsyncram_component|auto_generated|ram_block1a0_PORTADATAOUT_bus [17] $end
$var wire 1 i$ mem1|altsyncram_component|auto_generated|ram_block1a0_PORTADATAOUT_bus [16] $end
$var wire 1 j$ mem1|altsyncram_component|auto_generated|ram_block1a0_PORTADATAOUT_bus [15] $end
$var wire 1 k$ mem1|altsyncram_component|auto_generated|ram_block1a0_PORTADATAOUT_bus [14] $end
$var wire 1 l$ mem1|altsyncram_component|auto_generated|ram_block1a0_PORTADATAOUT_bus [13] $end
$var wire 1 m$ mem1|altsyncram_component|auto_generated|ram_block1a0_PORTADATAOUT_bus [12] $end
$var wire 1 n$ mem1|altsyncram_component|auto_generated|ram_block1a0_PORTADATAOUT_bus [11] $end
$var wire 1 o$ mem1|altsyncram_component|auto_generated|ram_block1a0_PORTADATAOUT_bus [10] $end
$var wire 1 p$ mem1|altsyncram_component|auto_generated|ram_block1a0_PORTADATAOUT_bus [9] $end
$var wire 1 q$ mem1|altsyncram_component|auto_generated|ram_block1a0_PORTADATAOUT_bus [8] $end
$var wire 1 r$ mem1|altsyncram_component|auto_generated|ram_block1a0_PORTADATAOUT_bus [7] $end
$var wire 1 s$ mem1|altsyncram_component|auto_generated|ram_block1a0_PORTADATAOUT_bus [6] $end
$var wire 1 t$ mem1|altsyncram_component|auto_generated|ram_block1a0_PORTADATAOUT_bus [5] $end
$var wire 1 u$ mem1|altsyncram_component|auto_generated|ram_block1a0_PORTADATAOUT_bus [4] $end
$var wire 1 v$ mem1|altsyncram_component|auto_generated|ram_block1a0_PORTADATAOUT_bus [3] $end
$var wire 1 w$ mem1|altsyncram_component|auto_generated|ram_block1a0_PORTADATAOUT_bus [2] $end
$var wire 1 x$ mem1|altsyncram_component|auto_generated|ram_block1a0_PORTADATAOUT_bus [1] $end
$var wire 1 y$ mem1|altsyncram_component|auto_generated|ram_block1a0_PORTADATAOUT_bus [0] $end
$var wire 1 z$ mem0|altsyncram_component|auto_generated|ram_block1a0_PORTADATAOUT_bus [17] $end
$var wire 1 {$ mem0|altsyncram_component|auto_generated|ram_block1a0_PORTADATAOUT_bus [16] $end
$var wire 1 |$ mem0|altsyncram_component|auto_generated|ram_block1a0_PORTADATAOUT_bus [15] $end
$var wire 1 }$ mem0|altsyncram_component|auto_generated|ram_block1a0_PORTADATAOUT_bus [14] $end
$var wire 1 ~$ mem0|altsyncram_component|auto_generated|ram_block1a0_PORTADATAOUT_bus [13] $end
$var wire 1 !% mem0|altsyncram_component|auto_generated|ram_block1a0_PORTADATAOUT_bus [12] $end
$var wire 1 "% mem0|altsyncram_component|auto_generated|ram_block1a0_PORTADATAOUT_bus [11] $end
$var wire 1 #% mem0|altsyncram_component|auto_generated|ram_block1a0_PORTADATAOUT_bus [10] $end
$var wire 1 $% mem0|altsyncram_component|auto_generated|ram_block1a0_PORTADATAOUT_bus [9] $end
$var wire 1 %% mem0|altsyncram_component|auto_generated|ram_block1a0_PORTADATAOUT_bus [8] $end
$var wire 1 &% mem0|altsyncram_component|auto_generated|ram_block1a0_PORTADATAOUT_bus [7] $end
$var wire 1 '% mem0|altsyncram_component|auto_generated|ram_block1a0_PORTADATAOUT_bus [6] $end
$var wire 1 (% mem0|altsyncram_component|auto_generated|ram_block1a0_PORTADATAOUT_bus [5] $end
$var wire 1 )% mem0|altsyncram_component|auto_generated|ram_block1a0_PORTADATAOUT_bus [4] $end
$var wire 1 *% mem0|altsyncram_component|auto_generated|ram_block1a0_PORTADATAOUT_bus [3] $end
$var wire 1 +% mem0|altsyncram_component|auto_generated|ram_block1a0_PORTADATAOUT_bus [2] $end
$var wire 1 ,% mem0|altsyncram_component|auto_generated|ram_block1a0_PORTADATAOUT_bus [1] $end
$var wire 1 -% mem0|altsyncram_component|auto_generated|ram_block1a0_PORTADATAOUT_bus [0] $end
$upscope $end
$upscope $end
$enddefinitions $end
#0
$dumpvars
b11 !
0"
b0 #
0$
b11 %
0&
xF
xE
xD
xC
xB
xA
x@
x?
x>
x=
x<
x;
x:
x9
x8
x7
x6
x5
x4
x3
x2
x1
x0
x/
x.
x-
x,
x+
x*
x)
x(
x'
0G
1H
xI
1J
1K
1L
0M
0N
xO
xP
xQ
xR
xS
xT
xU
xV
xW
xX
xY
xZ
x[
x\
x]
x^
x_
x`
xa
xb
xc
xd
xe
xf
xg
xh
xi
xj
xk
xl
xm
xn
1o
1p
xq
0r
1s
1t
xu
0v
xw
0x
xy
0z
x{
x|
x}
x~
x!!
x"!
x#!
0$!
x%!
x&!
x'!
0(!
x)!
x*!
x+!
0,!
x-!
x.!
x/!
00!
x1!
x2!
x3!
04!
x5!
x6!
x7!
08!
09!
0:!
0;!
0<!
0=!
0>!
x?!
x@!
0A!
xB!
xC!
xD!
xE!
xF!
xG!
xH!
xI!
xJ!
xK!
xL!
xM!
xN!
xO!
xP!
xQ!
xR!
xS!
xT!
xU!
xV!
xW!
xX!
xY!
xZ!
x[!
x\!
x]!
x^!
x_!
x`!
xa!
xb!
xc!
xd!
xe!
xf!
xg!
xh!
xi!
xj!
xk!
xl!
xm!
xn!
xo!
xp!
xq!
xr!
xs!
xt!
xu!
xv!
xw!
xx!
xy!
xz!
x{!
x|!
x}!
x~!
x!"
x""
x#"
x$"
x%"
x&"
x'"
0("
0)"
0*"
0+"
0,"
0-"
0."
x/"
x0"
x1"
02"
x3"
x4"
x5"
x6"
x7"
x8"
x9"
x:"
x;"
x<"
x="
x>"
x?"
x@"
xA"
xB"
xC"
xD"
xE"
xF"
xG"
xH"
xI"
xJ"
xK"
xL"
0M"
0N"
0O"
0P"
0Q"
0R"
0S"
xT"
xU"
0V"
xW"
xX"
xY"
xZ"
x["
x\"
x]"
x^"
x_"
x`"
xa"
xb"
xc"
xd"
xe"
xf"
xg"
xh"
xi"
xj"
xk"
xl"
xm"
xn"
xo"
xp"
xq"
0r"
0s"
0t"
0u"
0v"
0w"
0x"
xy"
xz"
x{"
x|"
x}"
x~"
x!#
x"#
x##
x$#
x%#
x&#
x'#
x(#
x)#
x*#
x+#
x,#
x-#
0.#
x/#
x0#
x1#
x2#
x3#
x4#
x5#
x6#
x7#
x8#
x9#
x:#
x;#
x<#
x=#
x>#
x?#
x@#
xA#
xB#
xC#
xD#
xE#
xF#
xG#
xH#
xI#
xJ#
xK#
xL#
xM#
xN#
xO#
xP#
xQ#
xR#
xS#
xT#
xU#
xV#
xW#
xX#
xY#
xZ#
x[#
x\#
x]#
x^#
x_#
x`#
xa#
xb#
xc#
xd#
xe#
xf#
xg#
xh#
xi#
xj#
xk#
xl#
xm#
xn#
xo#
xp#
xq#
xr#
xs#
xt#
xu#
xv#
xw#
xx#
xy#
xz#
x{#
x|#
x}#
x~#
x!$
x"$
x#$
0+$
0*$
0)$
0($
0'$
0&$
0%$
0$$
03$
02$
01$
00$
0/$
0.$
0-$
0,$
0;$
0:$
09$
08$
07$
06$
05$
04$
0C$
0B$
0A$
0@$
0?$
0>$
0=$
0<$
0U$
0T$
0S$
0R$
0Q$
0P$
0O$
0N$
0M$
0L$
0K$
0J$
0I$
0H$
0G$
0F$
0E$
0D$
0g$
0f$
0e$
0d$
0c$
0b$
0a$
0`$
0_$
0^$
0]$
0\$
0[$
0Z$
0Y$
0X$
0W$
0V$
0y$
0x$
0w$
0v$
0u$
0t$
0s$
0r$
0q$
0p$
0o$
0n$
0m$
0l$
0k$
0j$
0i$
0h$
0-%
0,%
0+%
0*%
0)%
0(%
0'%
0&%
0%%
0$%
0#%
0"%
0!%
0~$
0}$
0|$
0{$
0z$
$end
#173
0w
#1192
02#
#1239
03#
#1550
0/#
#1592
00#
#2303
0O#
#3360
0n!
#3363
0G!
#3370
0b!
#3371
0U!
#3455
0&"
#3488
0}
#3501
0C!
#3511
0k!
#3512
0E!
#3530
1W!
#3549
0+#
#3567
1S!
#3597
0q
#3616
1"!
#3633
0Y!
#3647
0y
#3699
1i!
#3759
1|
#3763
0{
#3765
0o!
#3774
05"
#3831
1y!
#3833
11#
04#
#3834
1R#
#3844
1B!
#3847
1H!
#3855
0M#
#3906
10"
#3908
1F!
#3910
1?!
#3913
0N!
#3979
1[!
#4023
0Z"
#4045
0d!
#4079
0/"
#4086
0-#
#4094
13"
#4095
1T"
#4099
1,#
#4111
1r!
#4145
0Z!
#4152
0H"
#4170
1W"
#4177
0{!
#4186
1N#
#4211
0j!
#4222
1J!
#4277
0p!
#4279
0D!
#4288
0P!
#4312
0I!
#4343
0z!
#4354
1]!
#4356
0T!
#4396
0@!
#4420
0f!
#4425
0O!
#4430
0u
#4435
0U"
#4444
01"
#4486
1t!
#4491
0\!
#4552
0}!
#4557
0e!
#4623
0s!
#4689
0|!
#4734
0K!
#4790
0|"
#4795
0Y"
#4800
0Q!
#4830
0[#
#4855
0*#
#4857
0"#
#4866
0^!
#4932
0g!
#4998
0u!
#5061
1["
#5064
0~!
#5095
0&#
#5102
1h!
#5120
0~
#5145
0{"
0%#
#5172
0##
#5186
1%!
#5190
0!$
#5191
0g#
#5223
1L!
#5231
08#
#5233
0D#
#5252
0)!
